<svg width="209" height="209" viewBox="0 0 209 209" fill="none" xmlns="http://www.w3.org/2000/svg">
<circle cx="104.5" cy="104.5" r="91.1452" fill="white" stroke="url(#paint0_linear)" stroke-width="2"/>
<circle cx="104.5" cy="104.5" r="103.5" fill="white" stroke="url(#paint1_linear)" stroke-width="1.5" stroke-linecap="round"/>
<circle cx="104.5" cy="104.5" r="103.5" fill="url(#paint2_linear)"/>
<path d="M202.992 104.5C202.992 158.896 153.888 202.992 99.4919 202.992C45.0963 202.992 6.00806 158.896 6.00806 104.5C6.00806 50.1044 57.7581 6.00807 112.154 6.00807C166.549 6.00807 202.992 50.1044 202.992 104.5Z" fill="#F0DAB5"/>
<circle cx="104.5" cy="104.5" r="93.9839" fill="url(#paint3_radial)" stroke="url(#paint4_linear)"/>
<path d="M154.714 59.4612C153.624 59.7164 151.408 60.1904 151.408 60.1904C150.935 60.081 151.153 59.8258 151.371 59.5705C144.178 61.0291 137.02 62.4876 129.863 64.0555C120.889 66.0245 112.096 68.0665 103.486 70.0355C112.278 67.9571 121.07 65.9516 129.863 64.0555C136.984 62.4511 144.25 60.8832 151.553 59.3518C151.735 59.0601 151.626 58.8777 150.027 59.0965C147.738 59.2788 140.072 61.2479 135.603 62.1594C129.463 63.3262 123.105 64.7118 116.747 66.1704C113.55 66.8996 110.389 67.6654 107.264 68.4311C104.14 69.1968 101.015 69.9625 97.9997 70.7283C89.171 72.916 80.4513 75.6143 71.8406 78.5678C70.351 79.0783 68.8614 79.6253 67.3718 80.1357C65.8822 80.6827 64.3563 81.1932 62.8666 81.7401C61.377 82.2871 59.8511 82.834 58.3615 83.381C56.8719 83.9279 55.3822 84.5113 53.929 85.0583C51.0224 86.1522 48.1885 87.2461 45.4999 88.1941C44.628 88.5223 43.7923 88.814 42.9567 89.1057C42.7387 88.8869 42.5207 88.7046 42.3027 88.5223C41.7941 88.9234 41.2491 89.288 40.6678 89.6162L40.7041 89.7256C40.7041 89.762 40.7405 89.7985 40.7405 89.8349C40.6678 89.8714 40.5588 89.9079 40.4861 89.9079C40.4861 89.8714 40.4861 89.8714 40.4861 89.8349V89.6891C40.3771 89.762 40.2681 89.7985 40.1591 89.8714C39.2872 90.6736 38.2699 91.3299 37.2163 91.9133C37.1799 92.0227 37.1799 92.1321 37.1436 92.278C37.1073 92.4603 37.0709 92.6791 37.0346 92.8614C37.0346 92.8614 37.0346 92.8978 37.0346 92.8614H37.0709H37.1436H37.2526C37.3252 92.8614 37.3979 92.8614 37.5069 92.8249C37.8339 92.7885 38.2335 92.752 38.6695 92.6791C39.1055 92.6061 39.5778 92.5332 40.0865 92.3874C40.1591 92.3874 40.1955 92.3509 40.2681 92.3509C40.3771 92.4967 40.4498 92.6061 40.5588 92.752C39.9048 92.9343 39.3598 93.0802 38.8512 93.226C37.9792 93.4813 37.2889 93.6636 36.7439 93.8459C36.5986 93.8823 36.4896 93.9188 36.3443 93.9917C36.3443 93.9917 36.2716 93.9917 36.2353 94.0282L36.1626 94.0647C36.1626 94.0647 36.1626 94.0282 36.1626 93.9917C36.1263 93.8459 36.1263 93.7 36.09 93.6271C36.0536 93.4448 35.981 93.3719 35.9083 93.4083C35.763 93.4448 35.5813 93.8459 35.436 94.2105C35.2543 94.5751 35.109 94.9033 35 94.5387V95.2679V95.4503V95.5232V95.5597C35 95.5961 35.0363 95.5597 35.0363 95.5597L35.3997 95.4503L36.8166 95.0856L39.6868 94.3564L41.5034 93.8459C41.5034 93.8823 41.5398 93.8823 41.5398 93.9188C41.7941 94.1741 42.3027 94.6845 42.5934 94.9033C45.7179 97.7474 49.0241 100.045 52.2577 102.196C55.4912 104.347 58.6885 106.426 61.704 108.796C57.8892 105.696 53.929 103.144 49.6781 100.263C49.7508 100.227 49.8961 100.227 49.7508 100.081C54.2923 102.67 57.9255 105.842 62.0673 108.613C61.9947 108.686 61.8857 108.832 61.8493 108.942C63.1936 110.036 64.5379 111.202 65.7369 112.479C66.2092 112.916 66.7178 113.171 67.1901 113.39C67.2265 113.5 67.2265 113.609 67.2628 113.682C66.5725 114.192 65.9185 114.666 65.3009 115.177C59.5604 119.662 62.031 119.443 67.8441 116.052C67.8805 116.198 67.9168 116.38 67.9531 116.526C63.3026 119.771 66.4635 118.604 65.9912 119.516C66.7542 118.969 67.4808 118.458 68.2438 117.948C68.3891 118.677 68.5344 119.443 68.6434 120.172C68.8251 120.792 69.1521 122.032 69.2974 122.652C71.2957 129.944 73.2213 136.982 75.1469 144.019C75.9098 146.827 76.6728 149.598 77.4358 152.369L77.5811 152.807C77.4721 153.098 77.3994 153.5 77.4721 154.046C77.5084 154.411 77.6901 154.812 77.9081 155.104C77.9444 155.177 78.0171 155.25 78.0897 155.286C78.1987 155.396 78.3077 155.505 78.4531 155.578C78.4894 155.614 78.5621 155.651 78.6347 155.687L78.8527 156.271L79.107 157C79.1434 156.964 79.1797 156.927 79.1797 156.891L78.78 155.797C78.8164 155.833 78.8527 155.833 78.889 155.833C78.9617 155.87 78.998 155.87 79.0707 155.87L79.2887 156.49L79.325 156.635V156.672C79.3614 156.635 79.3977 156.599 79.3977 156.599L79.5067 156.38L79.7247 155.943C79.8337 155.943 79.9427 155.906 80.0153 155.906C79.979 155.979 79.9427 156.015 79.9427 156.088C80.0153 156.015 80.088 155.943 80.1607 155.87C80.5603 155.505 80.96 155.14 81.3596 154.776C81.396 154.666 81.4323 154.593 81.4686 154.484C81.505 154.411 81.5049 154.338 81.5049 154.265C81.5049 154.192 81.5413 154.156 81.5413 154.046C81.5413 153.974 81.5413 153.937 81.5413 153.864C81.5776 153.791 81.6503 153.755 81.6866 153.682C82.0499 153.281 82.4496 152.916 82.8856 152.588C83.0672 152.369 83.3942 151.968 83.5395 151.749C85.5015 149.27 87.4634 146.936 89.5343 144.712C90.5879 143.618 91.6416 142.524 92.7679 141.503C93.3128 140.993 93.8942 140.482 94.4755 139.972C95.0568 139.461 95.6381 138.987 96.2194 138.513C95.4564 139.06 94.6935 139.716 93.9668 140.336C93.2402 140.956 92.5135 141.613 91.8232 142.269C90.4063 143.582 89.0983 144.967 87.7904 146.462C87.7541 146.389 87.7541 146.28 87.6087 146.353C89.9703 143.035 93.2765 140.883 96.0741 138.112C96.1467 138.185 96.2557 138.331 96.3284 138.404C97.382 137.602 98.472 136.909 99.5256 136.617C99.8526 136.471 100.107 136.289 100.325 136.07C100.434 136.143 100.543 136.216 100.652 136.289C101.597 136.909 102.541 137.529 103.486 138.149C107.228 140.665 110.934 143.253 114.894 145.806C109.844 142.488 105.411 139.133 100.47 135.997C100.543 135.961 100.688 135.961 100.543 135.815C105.775 138.659 109.917 142.67 115.294 145.587C115.257 145.66 115.148 145.842 115.076 145.915C116.929 147.046 118.782 148.212 120.78 149.27C121.216 149.489 121.615 149.634 122.015 149.744C122.269 149.817 122.524 149.89 122.814 149.963C123.178 150.036 123.505 150.036 123.795 149.999C123.432 149.926 123.105 149.853 122.705 149.671L122.56 149.598C122.524 149.562 122.524 149.562 122.487 149.562L122.342 149.489L122.088 149.343L120.998 148.686C120.271 148.285 119.545 147.811 118.818 147.374L117.728 146.717L116.638 146.025L115.548 145.332L114.494 144.639C111.624 142.743 108.827 140.81 106.138 138.841C108.463 140.409 111.188 142.16 113.441 143.837C115.112 145.004 116.747 146.025 118.382 146.973C118.782 147.191 119.218 147.447 119.617 147.665L120.235 148.03L120.852 148.358C121.252 148.577 121.652 148.796 122.088 149.015C122.306 149.124 122.487 149.233 122.705 149.379C123.141 149.598 123.505 149.671 123.868 149.744C124.013 149.78 124.195 149.78 124.34 149.78C124.522 149.088 124.776 148.395 125.067 147.738C124.994 147.738 124.922 147.738 124.849 147.738C124.74 147.775 124.522 147.811 124.34 147.811C124.449 147.556 124.595 147.264 124.704 146.9C124.776 146.499 124.922 145.879 125.031 145.368C125.14 144.858 125.249 144.457 125.249 144.457C125.503 144.165 125.685 144.42 125.83 144.639C127.065 139.425 128.482 134.283 130.044 129.179C131.97 122.761 134.186 116.562 136.73 110.692C134.186 116.745 131.97 122.907 130.044 129.179C128.519 134.32 127.174 139.571 125.975 144.858C126.157 145.077 126.375 145.077 126.775 143.946C127.392 142.378 128.446 136.727 129.427 133.554C132.152 124.912 135.24 115.505 138.909 107.264C139.236 106.499 139.563 105.769 139.89 105.004C140.217 104.238 140.544 103.509 140.908 102.743C141.562 101.248 142.252 99.7529 142.906 98.2579C143.596 96.7629 144.25 95.2679 144.977 93.773C145.667 92.278 146.358 90.783 147.084 89.3245C149.046 85.2406 151.335 81.0109 153.261 76.7447C154.205 74.6298 155.077 72.4785 155.768 70.3636C156.458 68.2852 156.966 66.2433 157.33 64.3472C157.62 62.6699 157.693 61.5031 157.62 60.8832C157.584 60.5915 157.511 60.4092 157.439 60.3363C158.456 59.607 158.383 59.0965 154.714 59.4612ZM40.8858 89.7985L41.1038 89.6891C41.1038 89.6891 41.1038 89.7256 41.1401 89.7256C41.0674 89.7256 40.9948 89.762 40.8858 89.7985ZM121.724 68.4311C131.461 66.3162 140.29 64.3108 149.119 62.597C148.973 62.7064 148.864 62.8158 148.719 62.9252C132.079 65.9881 114.385 70.0355 97.6 74.4475C105.23 72.3326 113.949 70.0355 121.724 68.4311ZM61.4134 107.738C59.1971 105.988 56.7992 104.347 54.4739 102.706C56.4722 104.019 58.7975 105.478 60.5777 107.009C62.9756 108.942 65.1556 110.655 66.9358 112.697C66.8995 112.697 66.8632 112.661 66.8268 112.661C66.8632 112.843 66.9358 113.025 66.9722 113.208C65.4825 111.239 63.5569 109.416 61.4134 107.738ZM69.0067 112.077C68.8251 111.895 68.6798 111.749 68.6798 111.749C68.7161 111.567 68.8614 111.458 69.0067 111.385C69.0067 111.603 68.9704 111.822 69.0067 112.077ZM69.0067 111.239C67.5171 109.634 65.8822 108.066 64.2109 106.681C62.031 104.931 59.8147 103.253 57.7438 101.54C59.8874 103.217 62.1037 104.894 64.2109 106.681C65.8822 107.994 67.5171 109.452 69.0431 111.02C69.0431 111.056 69.0067 111.129 69.0067 111.239ZM69.2611 110.291C69.0067 109.963 68.5344 109.489 67.9894 109.015C67.3355 108.431 66.5362 107.848 66.0275 107.374C63.2663 104.603 59.7421 102.342 56.7629 100.008C54.5829 98.3308 52.294 96.9088 50.1141 95.3773C49.7508 95.1221 49.3511 94.8668 48.9878 94.5751C48.6245 94.3199 48.2612 93.9917 47.8979 93.7C47.5345 93.4083 47.1712 93.1166 46.8442 92.8249C46.6989 92.6791 46.5536 92.5697 46.4082 92.4238C47.5709 92.0592 48.7335 91.731 49.9324 91.3664C50.9861 90.9653 53.1297 90.1631 54.1833 89.762C78.78 80.0628 102.832 73.4995 128.083 67.8841C111.806 71.4575 96.6554 75.1768 80.8146 80.2087C80.9236 80.0993 81.2143 79.917 80.633 80.0628C88.626 77.2916 96.5464 75.1403 104.467 73.1713C112.423 71.2023 120.417 69.3791 128.628 67.3372C128.664 67.4466 128.7 67.6289 128.7 67.7018C134.513 66.3892 140.435 65.1859 146.394 63.9461C146.866 63.8367 147.339 63.7273 147.811 63.618C147.339 64.019 146.83 64.4201 146.358 64.8212C143.96 66.1704 140.98 67.9206 138.909 69.0145C129.463 73.9006 119.508 79.8805 110.316 85.2406C103.631 89.1421 97.1277 93.3354 90.6969 97.6745C83.9392 102.269 76.5638 107.009 70.3874 111.348C69.915 110.291 69.5154 109.999 69.2611 110.291ZM98.6173 97.4922C110.28 89.4703 121.942 83.2351 134.005 75.979C133.641 76.3071 133.278 76.6718 132.915 76.9999C121.143 83.6362 110.207 90.1996 98.8353 97.6016C98.8716 97.4922 99.0896 97.2734 98.6173 97.4922ZM111.188 88.8504C116.929 85.2771 123.468 81.2661 129.391 78.0209C131.425 76.8905 133.423 75.7602 135.385 74.6663C135.313 74.7027 135.276 74.7757 135.204 74.8121C127.138 79.3336 119.036 84.1102 111.188 88.8504ZM134.768 72.1139C127.974 75.9425 121.288 79.7347 114.712 83.4539C121.361 79.6617 128.046 75.8696 134.768 72.1139C137.602 70.5095 140.472 68.9051 143.378 67.3007C143.306 67.3737 143.197 67.4466 143.124 67.556C140.29 69.051 137.529 70.5824 134.768 72.1139ZM77.5811 152.552C77.5811 152.588 77.5448 152.624 77.5448 152.624L77.4358 152.333L77.3994 152.187L77.3631 152.005L76.9634 150.473C76.4548 148.65 75.9825 146.827 75.4738 145.004C74.8562 142.779 74.2386 140.519 73.6209 138.221C73.6936 138.258 73.8389 138.44 73.8026 138.112C74.5655 140.409 75.2195 142.67 75.8372 144.967C76.3095 146.717 76.7818 148.504 77.2541 150.254L77.6174 151.713L77.7991 152.223C77.6901 152.333 77.6538 152.442 77.5811 152.552ZM78.0897 151.64C77.8354 150.801 77.5811 149.89 77.3268 148.869C77.4358 149.27 77.5448 149.671 77.6538 150.108C77.7264 150.327 77.7628 150.51 77.8354 150.728C77.9081 150.947 77.9444 151.093 78.0171 151.275C78.0534 151.385 78.0897 151.494 78.1261 151.603L78.0897 151.64ZM79.979 154.265L79.8337 154.557C79.7973 154.557 79.761 154.557 79.7247 154.557C79.8337 154.338 79.9427 154.083 80.0517 153.864C80.088 153.864 80.1243 153.901 80.1607 153.901C80.088 154.01 80.0153 154.119 79.979 154.265ZM82.7039 138.586C82.3769 139.862 82.0863 141.102 81.7593 142.342C81.6139 142.962 81.4323 143.582 81.2506 144.165L81.1053 144.603L81.0326 144.821C80.9963 144.894 80.9963 144.894 80.9963 144.931L80.851 145.368C80.633 145.915 80.415 146.426 80.197 146.827C80.088 147.046 79.979 147.191 79.87 147.337L79.7973 147.447L79.761 147.483C79.761 147.447 79.761 147.41 79.7247 147.374L79.652 146.9L79.7247 147.337V147.41C79.7247 147.41 79.7247 147.483 79.7247 147.447L79.761 147.41L79.8337 147.301C79.9427 147.155 80.0517 146.973 80.1607 146.754C80.2697 146.572 80.3787 146.353 80.4877 146.098C80.5966 145.879 80.7056 145.624 80.7783 145.332L80.9236 144.931L80.96 144.894L80.9963 144.785L81.069 144.566L81.2143 144.129C81.396 143.545 81.5776 142.925 81.7229 142.305C82.0863 141.066 82.3769 139.826 82.7039 138.586C83.6849 134.539 84.7385 130.309 86.8821 126.444C86.8094 126.335 86.7368 126.262 86.5914 126.298C86.4461 126.335 86.2644 126.517 85.9738 126.918C85.7558 127.21 85.4651 127.684 85.1745 128.304C85.0292 128.632 84.8838 128.96 84.7385 129.324C84.6658 129.507 84.5932 129.689 84.5205 129.871C84.4478 130.054 84.3752 130.273 84.3388 130.455C84.1935 130.856 84.0845 131.257 83.9392 131.658C83.8302 132.059 83.6849 132.46 83.5759 132.861C83.3215 133.664 83.1399 134.429 82.9582 135.049C82.4132 136.763 81.9409 138.55 81.4686 140.3C81.2506 141.175 80.9963 142.05 80.7783 142.925C80.5603 143.691 80.197 144.967 80.2333 144.785C80.1243 145.04 80.0153 145.222 79.9427 145.295C79.9427 145.295 79.9063 145.295 79.9063 145.332C79.9063 145.332 79.87 145.368 79.87 145.295L79.8337 145.077C79.8337 144.931 79.8337 144.821 79.8337 144.712C79.8337 144.639 79.8337 144.603 79.87 144.566V144.53C79.87 144.53 79.87 144.53 79.87 144.493L79.7973 144.274L79.6883 143.8C79.3614 142.561 79.0344 141.321 78.7074 140.081C78.0171 137.602 77.2904 135.122 76.6001 132.679C74.8925 126.954 73.4392 120.646 71.877 115.541C73.1123 114.776 74.3475 114.01 75.5828 113.281C76.3821 112.734 77.9807 111.64 78.78 111.129C88.1174 104.785 97.273 98.7319 106.465 92.9343C115.148 87.4648 123.868 82.1777 132.878 77.0728C128.918 80.7921 125.031 84.5113 121.216 88.2306C114.603 94.6481 108.064 101.102 101.451 107.702C110.026 99.2789 118.128 91.4393 126.775 83.0893C126.738 83.1987 126.629 83.4174 126.956 83.1622C118.455 91.9498 109.735 99.3883 101.379 108.322C101.306 108.249 101.161 108.103 101.088 108.03C98.036 111.056 94.9478 114.156 91.8596 117.255C90.5879 118.568 89.6433 119.844 88.9167 120.938C98.363 112.005 108.318 101.831 118.128 92.5332C114.022 96.5077 109.481 101.175 105.302 105.077C99.4166 110.728 94.3665 116.052 89.0983 121.157C88.8077 121.412 88.517 121.704 88.2264 121.995C87.9357 122.433 87.7177 122.871 87.4997 123.235C87.1727 123.855 86.9911 124.402 87.0637 124.694C85.9375 124.767 86.3371 125.642 87.6814 126.699C87.5724 126.881 87.4997 126.991 87.4997 126.991C87.2091 127.137 87.1001 126.881 86.9911 126.663C84.8475 130.382 83.7212 134.575 82.7039 138.586ZM83.9755 144.056L83.9392 144.165C83.9029 144.201 83.8665 144.274 83.7939 144.311C83.8302 144.238 83.8302 144.129 83.8665 144.056C84.7748 140.92 85.3925 137.93 86.1918 135.122C86.5914 133.7 87.0274 132.387 87.5361 131.075C87.8267 130.455 88.081 129.799 88.408 129.215V129.179C88.4807 129.215 88.5534 129.252 88.626 129.324C87.7904 130.856 87.1001 132.57 86.5188 134.32C85.7195 136.763 85.1018 139.388 84.4478 142.05C84.3025 142.743 84.1572 143.399 83.9755 144.056ZM85.1018 142.816C85.2835 142.123 85.4651 141.43 85.6105 140.774C85.4288 141.467 85.2471 142.16 85.1018 142.816C84.9565 142.998 84.8112 143.144 84.6658 143.29C84.8838 142.305 85.1381 141.284 85.3198 140.3C85.4288 140.336 85.6105 140.373 85.6831 140.373C86.0828 138.732 86.4824 137.091 86.9547 135.487C87.1727 134.685 87.4271 133.919 87.6814 133.117C87.8267 132.716 87.972 132.351 88.1174 131.986C88.2627 131.622 88.408 131.221 88.5897 130.856C88.7713 130.382 88.9167 129.944 89.062 129.543C89.5343 129.835 90.0066 130.127 90.4426 130.455C90.8059 130.637 91.4963 130.965 91.8232 131.148C92.3319 131.403 92.8405 131.658 93.3128 131.95C93.8215 132.242 94.2938 132.497 94.8025 132.752C95.2748 133.044 95.7834 133.335 96.2557 133.627C95.9651 133.809 95.6744 133.992 95.4201 134.138C93.8942 134.903 92.6225 135.997 91.3872 137.018C90.152 138.076 88.953 139.133 87.754 140.118C86.8457 140.956 85.9375 141.868 85.1018 142.816ZM89.28 139.753C90.152 139.06 91.0239 138.331 91.8596 137.638C92.7315 136.945 93.5672 136.252 94.5118 135.56C95.2384 135.013 96.0377 134.466 96.8734 133.992C96.9097 133.992 96.946 134.028 96.946 134.028C96.946 134.028 96.9097 134.028 96.9097 134.065C96.0377 134.502 95.2384 135.013 94.4755 135.56C93.5308 136.252 92.6952 136.982 91.8232 137.675C91.0239 138.404 90.152 139.06 89.28 139.753ZM97.7817 136.617C96.8734 137.055 96.0014 137.675 95.1294 138.367C93.3855 139.789 91.6779 141.321 90.043 142.852C91.3872 141.503 92.8769 139.935 94.4391 138.805C95.4928 138.003 96.4374 137.237 97.4184 136.654C98.145 136.216 98.908 135.888 99.6346 135.706C99.7436 135.778 99.8526 135.851 99.9616 135.924C99.2713 135.997 98.5083 136.252 97.7817 136.617ZM122.269 146.389C121.688 146.098 121.143 145.806 120.598 145.441L118.927 144.457L117.292 143.436C114.567 141.758 111.987 139.899 109.553 137.93C112.06 139.862 114.64 141.722 117.292 143.436C117.837 143.764 118.382 144.092 118.927 144.42C119.472 144.748 120.053 145.04 120.634 145.368C121.179 145.696 121.761 145.988 122.342 146.28L122.742 146.462C122.742 146.535 122.742 146.572 122.742 146.644L122.269 146.389ZM150.572 70.9835C150.281 71.7492 149.7 73.2442 149.373 73.9735C147.52 78.3491 145.304 82.5423 143.16 86.8085C141.017 91.0747 138.982 95.3773 137.093 99.7164C133.314 108.395 130.081 117.255 127.247 126.407C129.1 120.5 131.134 114.885 133.314 109.343C135.494 103.8 137.856 98.2944 140.472 92.6791C140.472 92.7885 140.435 93.0802 140.69 92.6791C138.219 98.4402 135.785 103.983 133.496 109.598C131.207 115.213 129.136 120.938 127.501 126.991C127.392 126.954 127.211 126.918 127.138 126.881C125.83 131.111 124.595 135.414 123.505 139.789C123.069 141.613 122.923 143.253 122.851 144.603C124.595 138.149 126.484 131.439 128.664 124.73C129.717 121.376 130.916 118.057 132.115 114.739C133.351 111.458 134.622 108.176 135.967 105.004C133.75 110.4 131.534 116.708 129.572 122.214C128.192 126.152 127.065 129.981 126.048 133.7C125.031 137.419 124.122 141.066 123.178 144.712C123.105 145.04 122.996 145.368 122.923 145.696C122.669 145.551 122.378 145.441 122.051 145.295C121.179 144.894 120.199 144.384 119.545 143.983C115.984 141.54 111.987 138.951 108.536 136.216C105.993 134.247 103.268 132.497 100.434 130.856C98.5083 129.726 96.4737 128.522 94.4755 127.428C93.0949 126.699 91.7142 126.043 90.4063 125.532C90.5879 124.511 90.4426 123.746 88.953 125.022C88.844 124.985 88.735 124.949 88.626 124.912C88.3717 124.84 88.1174 124.803 87.8994 124.767C88.2627 124.584 88.735 124.293 89.3527 123.819C89.8976 123.235 91.0239 122.032 91.0239 122.032C91.3872 121.922 91.4236 122.214 91.4236 122.506C95.1294 118.787 98.8353 115.031 102.614 111.348C107.264 106.681 111.915 102.159 116.638 97.9298C111.878 102.305 107.228 106.827 102.614 111.348C98.8716 115.067 95.1658 118.896 91.4599 122.761C91.4963 123.053 91.6779 123.162 92.5862 122.433C93.9305 121.448 97.6727 117.146 99.9979 114.885C106.501 108.759 113.332 101.795 119.944 95.742C124.74 91.3299 129.354 86.772 134.005 82.2506C138.982 77.3281 144.614 72.442 149.3 68.0665C150.608 67.3007 151.735 66.535 152.716 65.8422C152.062 67.5924 151.408 69.3062 150.572 70.9835ZM152.679 65.6234C152.025 65.9516 151.408 66.2433 150.754 66.5715C150.972 66.3527 151.226 66.1339 151.444 65.9151C151.916 65.6964 152.352 65.4411 152.825 65.2223C152.788 65.3682 152.716 65.514 152.679 65.6234ZM151.226 63.2169C150.608 63.545 149.991 63.8732 149.409 64.1649C149.373 64.1284 149.373 64.1284 149.373 64.092C149.482 63.9826 149.591 63.9097 149.7 63.8003C150.245 63.5086 150.79 63.2169 151.335 62.8887C151.371 62.7793 151.371 62.6699 151.262 62.6334C151.771 62.4511 152.28 62.3053 152.752 62.123C152.243 62.1959 151.735 62.3053 151.226 62.4147C151.371 62.2688 151.48 62.1594 151.589 62.05C151.953 61.9771 152.352 61.9042 152.716 61.8313C153.006 61.7948 153.297 61.7219 153.624 61.6854C152.97 62.05 152.171 62.5605 151.226 63.2169ZM154.314 66.2433C154.205 66.2068 154.024 66.1704 153.951 66.1339C154.169 65.4776 154.314 64.9306 154.423 64.4566C154.714 64.2378 154.968 63.9826 155.223 63.8003C154.932 64.4931 154.641 65.3317 154.314 66.2433ZM156.058 61.7583C155.804 61.7948 155.477 61.9042 155.041 62.0136C155.295 61.6125 155.332 61.3572 155.223 61.2479C155.586 61.102 155.913 60.9926 156.204 60.8468C156.349 60.7738 156.494 60.7009 156.639 60.628C156.458 60.9197 156.276 61.2843 156.058 61.7583Z" fill="#E9583A"/>
<defs>
<linearGradient id="paint0_linear" x1="-8.42679" y1="-14.4799" x2="484.685" y2="-32.1978" gradientUnits="userSpaceOnUse">
<stop stop-color="#A8842F"/>
<stop offset="0.494792" stop-color="#E5CE8B"/>
<stop offset="1" stop-color="#AC8936"/>
</linearGradient>
<linearGradient id="paint1_linear" x1="-25.1567" y1="-32.1066" x2="541.008" y2="-52.4493" gradientUnits="userSpaceOnUse">
<stop stop-color="#A8842F"/>
<stop offset="0.494792" stop-color="#E5CE8B"/>
<stop offset="1" stop-color="#AC8936"/>
</linearGradient>
<linearGradient id="paint2_linear" x1="8.02779" y1="-56.1517" x2="229.107" y2="-47.5882" gradientUnits="userSpaceOnUse">
<stop stop-color="#A8842F"/>
<stop offset="0.494792" stop-color="#E5CE8B"/>
<stop offset="1" stop-color="#AC8936"/>
</linearGradient>
<radialGradient id="paint3_radial" cx="0" cy="0" r="1" gradientUnits="userSpaceOnUse" gradientTransform="translate(88.6411 86.1371) rotate(60.0413) scale(138.73)">
<stop offset="0.421875" stop-color="white"/>
<stop offset="0.708333" stop-color="white" stop-opacity="0.56"/>
<stop offset="0.833333" stop-color="white"/>
</radialGradient>
<linearGradient id="paint4_linear" x1="-12.6093" y1="-18.8866" x2="498.766" y2="-37.2607" gradientUnits="userSpaceOnUse">
<stop stop-color="#A8842F"/>
<stop offset="0.494792" stop-color="#E5CE8B"/>
<stop offset="1" stop-color="#AC8936"/>
</linearGradient>
</defs>
</svg>
