<svg width="209" height="209" viewBox="0 0 209 209" fill="none" xmlns="http://www.w3.org/2000/svg">
<circle cx="103" cy="108" r="100" fill="#FCF4E7"/>
<circle cx="104.5" cy="104.5" r="91.1452" fill="white" stroke="url(#paint0_linear)" stroke-width="2"/>
<circle cx="104.5" cy="104.5" r="103.5" fill="white" stroke="url(#paint1_linear)" stroke-width="1.5" stroke-linecap="round"/>
<circle cx="104.5" cy="104.5" r="103.5" fill="url(#paint2_linear)"/>
<path d="M202.992 104.5C202.992 158.896 153.888 202.992 99.4919 202.992C45.0963 202.992 6.00806 158.896 6.00806 104.5C6.00806 50.1044 57.7581 6.00806 112.154 6.00806C166.549 6.00806 202.992 50.1044 202.992 104.5Z" fill="#F0DAB5"/>
<circle cx="104.5" cy="104.5" r="93.9839" fill="url(#paint3_radial)" stroke="url(#paint4_linear)"/>
<path d="M70.7672 136.206C70.6902 136.13 70.5362 136.016 70.4591 135.939C71.7684 134.835 70.4206 134.758 70.1896 134.263C69.612 134.873 68.9574 135.444 68.1488 135.863C67.9947 136.016 67.7252 136.32 67.5712 136.511C64.2211 140.244 61.3716 143.978 58.2911 147.788C60.332 145.388 62.2573 143.14 64.1826 140.702C64.2211 140.778 64.2596 140.854 64.3751 140.816C62.7194 143.597 60.2164 145.388 58.5607 148.131C58.4836 148.054 58.3296 147.94 58.2141 147.902C57.521 148.778 56.7894 149.654 56.0192 150.531C55.7497 150.912 55.6727 151.369 55.6727 151.788C58.2141 149.426 60.3705 146.416 62.7194 143.826C61.7952 144.968 60.8325 146.378 59.7544 147.445C58.2911 149.007 57.2514 150.607 55.9037 152.017C55.8267 152.093 55.7497 152.169 55.6727 152.245C55.7112 152.436 55.7112 152.588 55.7497 152.74C55.9422 153.388 56.4043 153.96 57.3285 153.54C57.444 153.35 57.675 153.007 57.675 153.007C57.906 153.045 58.0601 153.236 58.1756 153.388C59.0612 152.359 59.9084 151.293 60.794 150.264C61.8337 148.931 62.9504 147.673 64.1826 146.607C62.9889 147.788 61.8722 149.007 60.794 150.264C59.9469 151.331 59.1383 152.436 58.3296 153.54C58.5222 153.731 58.6762 153.845 58.9842 153.655C59.4848 153.502 60.0624 152.131 60.64 151.521C62.3343 149.921 63.759 147.902 65.4148 146.302C66.6085 145.159 67.6097 143.826 68.6108 142.492C69.9586 140.625 71.9224 139.063 72.8851 137.425C73.7707 135.863 72.3075 135.33 70.7672 136.206Z" fill="#F5A22A"/>
<path d="M49.3961 124.129C49.3961 124.053 49.4346 123.939 49.3191 123.939C52.5151 122.415 55.9037 122.339 59.2153 121.196C59.2538 121.31 59.2923 121.5 59.3308 121.577C59.9469 121.462 60.5245 121.31 61.1406 121.196C61.7567 121.081 62.3343 120.967 62.7579 120.967C63.1044 120.929 63.3355 120.7 63.528 120.51C63.0659 120.281 62.2188 120.281 61.2946 120.434C60.332 120.586 59.3693 120.738 58.4066 120.967C56.4813 121.386 54.556 121.843 52.6307 122.3C54.2094 121.843 55.9807 121.272 57.6365 121.043C58.7917 120.853 59.8699 120.586 60.9481 120.357C61.4871 120.243 61.9877 120.129 62.4113 120.091C62.8734 120.053 63.2584 120.091 63.5665 120.167C63.6435 120.205 63.682 120.205 63.7205 120.243C63.7975 120.129 63.9131 120.053 63.9901 119.976C64.1826 119.748 64.4136 119.557 64.5677 119.253C64.6832 118.986 64.7217 118.605 64.2981 118.224C64.1826 118.186 63.9901 118.148 63.836 118.148C63.682 118.11 63.5665 118.11 63.5665 118.11C63.4895 117.919 63.528 117.691 63.605 117.462C62.6808 117.348 61.8337 117.5 61.0636 117.614L58.7917 118.033C56.9049 118.453 55.0566 118.834 53.2083 119.062C55.0951 118.757 56.9434 118.376 58.7917 118.033C59.5618 117.881 60.2934 117.691 61.0636 117.538C61.8337 117.386 62.7194 117.195 63.682 117.272C63.759 117.043 63.759 116.814 63.297 116.662C62.9889 116.51 62.2573 116.548 61.6027 116.7C60.9096 116.852 60.332 117.081 59.8314 117.119C57.1744 117.348 54.479 118.186 51.8605 118.605C49.9737 118.91 48.1639 119.557 46.3926 120.243C43.9667 121.196 41.1172 121.729 39.2304 122.796C37.5747 123.824 38.7298 124.929 40.6937 124.815C40.7322 124.929 40.8092 125.12 40.8477 125.196C38.9994 125.615 40.2316 126.263 40.1931 126.834C41.0787 126.529 42.0029 126.339 42.9656 126.339C43.1966 126.263 43.6202 126.11 43.8512 126.034C49.0496 124.32 53.9399 122.681 59.1768 121.577C55.8267 122.3 52.6692 123.062 49.3961 124.129Z" fill="#F5A22A"/>
<path d="M40.0006 94.0701C40.1931 94.0701 40.6167 94.1082 40.8092 94.1082C43.1966 94.2225 45.507 94.451 47.7789 94.832C50.0508 95.213 52.2841 95.7083 54.5175 96.4321C51.7065 95.4035 48.9341 94.7177 45.9306 94.4129C45.9691 94.3367 46.0461 94.2605 45.9306 94.2225C47.5093 94.1844 48.9726 94.5272 50.3973 94.9463C51.8221 95.3654 53.2468 95.8606 54.7485 96.1273C54.71 96.2416 54.6715 96.4321 54.633 96.5083C55.6342 96.8512 56.6739 97.2322 57.675 97.6893C58.0986 97.8417 58.5222 97.7655 58.9457 97.6893C56.1348 95.8987 52.6307 94.9463 49.2806 94.1463C50.7054 94.4129 52.3611 94.6796 53.7089 95.2511C55.6342 95.9749 57.444 96.4702 59.0613 97.3846C59.1383 97.4226 59.2153 97.4988 59.3308 97.5369C59.4848 97.4607 59.6389 97.4226 59.7929 97.3465C60.3705 97.0036 60.8326 96.4321 60.2165 95.6321C60.0239 95.5559 59.6389 95.4035 59.6389 95.4035C59.6389 95.1749 59.7544 94.9844 59.8699 94.832C58.5992 94.2605 57.3285 93.7272 56.0193 93.2319C54.3635 92.6985 52.7462 92.1652 51.1289 91.5175C52.7847 92.089 54.402 92.6223 56.0193 93.2319C57.3285 93.651 58.6762 94.1082 59.9854 94.6415C60.1009 94.4129 60.1779 94.2225 59.9469 93.9558C59.6389 93.4986 58.0986 93.3081 57.29 92.9652C55.1336 91.8604 52.5537 91.2889 50.2433 90.527C48.549 89.9936 46.8162 89.8031 45.0449 89.7269C42.619 89.6507 40.0006 89.0793 38.0367 89.4983C36.2654 89.8793 36.9586 91.327 38.6528 91.8604C38.6528 91.9747 38.6528 92.1652 38.6528 92.2795C36.9586 92.0509 37.8057 93.0795 37.6132 93.6129C38.3833 93.6129 39.1919 93.7653 40.0006 94.0701Z" fill="#F5A22A"/>
<path d="M54.248 71.3258C54.402 71.4401 54.71 71.6306 54.8641 71.7068C56.6739 72.8497 58.4837 73.9164 60.255 74.9832C61.1406 75.5165 61.9492 76.0118 62.6809 76.5833C63.4125 77.1547 64.1056 77.7643 64.6062 78.4119C64.2981 77.9929 63.9131 77.5738 63.4895 77.1928C63.0659 76.8118 62.6039 76.4309 62.1418 76.0499C61.6412 75.707 61.1406 75.3641 60.6015 75.0213C60.0239 74.6784 59.4848 74.3355 58.8687 73.9926C58.9072 73.9545 59.0228 73.9164 58.9457 73.8021C61.6027 74.8689 63.2585 76.7737 64.9527 78.2215C64.8757 78.2976 64.7217 78.4119 64.6447 78.4881C65.1068 79.0977 65.4533 79.7073 65.5689 80.2787C65.6074 80.393 65.6844 80.4692 65.7999 80.5454C65.9154 80.6216 66.0309 80.6978 66.1464 80.774C66.3775 79.7835 65.8384 78.6024 64.9527 77.5738C64.0671 76.5452 62.8734 75.6308 61.7182 74.7546C62.7579 75.4403 63.9516 76.1642 64.6832 77.1166C65.2223 77.7643 65.6844 78.3357 65.9924 78.9453C66.339 79.5549 66.493 80.1644 66.4545 80.7359C66.4545 80.8121 66.4545 80.8502 66.416 80.9264C66.5315 81.0026 66.647 81.0407 66.7626 81.1169C67.3016 81.3074 68.0718 81.574 68.4953 80.774C68.4953 80.6978 68.4568 80.5454 68.4568 80.4311C68.4183 80.3168 68.4183 80.2406 68.4183 80.2406C68.6109 80.1263 68.8419 80.1263 69.0344 80.1263C68.8804 78.7548 68.2258 77.4976 67.4942 76.4309C66.4545 75.1355 65.2993 74.1069 64.2596 73.0021C65.4148 74.0307 66.5315 75.1355 67.4942 76.4309C68.3028 77.4595 69.0344 78.7167 69.2655 80.1263C69.535 80.1263 69.7275 80.0882 69.8046 79.7073C69.8816 79.5549 69.8431 79.3644 69.7661 79.1358C69.7275 79.0215 69.689 78.9072 69.6505 78.7548C69.612 78.6405 69.535 78.4881 69.458 78.3738C69.381 78.2596 69.3425 78.1072 69.2655 77.9929C69.1885 77.8786 69.1114 77.7262 69.0344 77.6119C68.8804 77.3452 68.7649 77.1547 68.6494 76.9642C68.1488 75.8213 67.3401 74.8689 66.4545 74.0688C65.6074 73.2688 64.6832 72.5449 63.8746 71.8211C63.5665 71.5544 63.2585 71.3258 62.9504 71.0972C62.6424 70.9067 62.3343 70.6781 62.0263 70.4876C61.4102 70.1067 60.7555 69.7638 60.1009 69.4209C58.2911 68.5447 56.6354 67.0208 55.0181 66.4874C53.5548 66.0683 53.2468 67.5541 54.2095 68.7732C54.1709 68.8494 54.0554 69.0399 53.9784 69.1161C52.8617 68.1637 52.9002 69.4209 52.4767 69.7638C53.2083 70.221 53.7859 70.6781 54.248 71.3258Z" fill="#F5A22A"/>
<path d="M70.8827 58.2583C70.9983 58.3345 71.2293 58.4869 71.3833 58.5631C72.8081 59.5155 74.0788 60.5823 75.1955 61.8395C76.3121 63.0586 77.2363 64.4682 77.8909 65.9921C77.1208 63.9729 75.9656 62.2205 74.3483 60.7346C74.4253 60.6966 74.5023 60.6585 74.5023 60.5823C75.5035 61.1918 76.1196 62.1062 76.6972 63.0586C77.2363 64.011 77.6599 65.0016 78.3145 65.9159C78.2375 65.954 78.0449 66.0302 77.9294 66.1064C78.0834 66.4493 78.199 66.8303 78.3145 67.2112C78.353 67.4017 78.43 67.5922 78.4685 67.7827C78.507 67.9732 78.5455 68.1637 78.584 68.3542C78.6995 68.659 78.9691 68.8494 79.2386 69.0399C79.2771 67.8208 78.9691 66.5636 78.4685 65.3826C77.9679 64.2015 77.2748 63.0967 76.5817 62.03C77.2748 62.8681 78.0064 63.8587 78.353 64.8873C78.8921 66.335 79.5082 67.5541 79.5467 68.9256C79.5467 69.0018 79.5467 69.078 79.5467 69.1542C79.7007 69.1923 79.8162 69.2685 79.9318 69.3066C80.5093 69.459 81.2795 69.4971 81.5875 68.7351C81.549 68.5828 81.472 68.2399 81.472 68.2399C81.6645 68.1256 81.8571 68.0875 82.0881 68.0875C81.8956 66.9827 81.5875 65.9159 81.2025 64.8873C80.6634 63.592 80.0858 62.3347 79.5082 61.0775C80.1628 62.3347 80.7404 63.592 81.2025 64.8873C81.6645 65.9159 82.0111 66.9827 82.3192 68.0875C82.5502 68.0494 82.7812 67.9732 82.8582 67.7065C82.9738 67.4779 82.8197 67.0969 82.6657 66.6779C82.5117 66.2588 82.2421 65.8397 82.1651 65.4969C82.0881 65.0016 81.9341 64.5063 81.7416 64.0491C81.549 63.592 81.3565 63.0967 81.1255 62.6395C80.8944 62.1824 80.6634 61.7252 80.3938 61.268C80.1628 60.8489 79.8932 60.3918 79.6237 59.9346C78.8921 58.6393 77.8139 57.6106 76.6587 56.7344C76.2351 56.4296 75.8501 56.1248 75.465 55.782C75.0414 55.4772 74.6564 55.1343 74.2328 54.8676C73.8092 54.5628 73.4242 54.2961 73.0006 54.0676C72.577 53.839 72.1535 53.6485 71.7684 53.5723C70.2666 53.2675 70.1896 54.8676 71.1138 55.8962C71.0753 55.9724 70.9598 56.1629 70.9212 56.2391C69.8816 55.4772 69.9971 56.6963 69.612 57.0773C70.0741 57.3059 70.5362 57.6868 70.8827 58.2583Z" fill="#F5A22A"/>
<path d="M91.9072 48.6577C92.5619 52.5437 93.3705 56.1248 93.8326 59.9346C93.64 57.4583 93.332 55.1724 92.8314 52.7722C92.9084 52.7722 92.9854 52.8103 93.0239 52.7341C93.9481 55.1343 93.5245 57.5725 94.2561 60.0108C94.1406 60.0108 93.9481 60.0489 93.8326 60.087C93.9481 60.9632 94.0251 61.8395 94.0636 62.7538C94.1406 63.1348 94.3717 63.4015 94.6412 63.6301C94.9108 60.887 94.3332 58.0297 94.0636 55.2486C94.2561 56.3915 94.5642 57.7249 94.5642 58.906C94.6412 60.5823 94.9878 62.0681 94.9493 63.592C94.9493 63.6682 94.9493 63.7444 94.9108 63.8587C95.0648 63.9348 95.1803 64.011 95.2958 64.0872C95.8734 64.3158 96.605 64.392 97.0286 63.6301C96.9901 63.4777 96.9516 63.1348 96.9516 63.1348C97.1441 63.0205 97.3752 63.0205 97.5677 63.0586C97.4907 61.9538 97.4137 60.887 97.2982 59.8203C97.1441 58.4869 97.0286 57.1535 97.0671 55.8201C97.0671 57.1535 97.1826 58.4869 97.2982 59.8203C97.4522 60.887 97.6062 61.9919 97.7602 63.0586C97.9913 63.0586 98.2223 63.0205 98.3378 62.7538C98.6074 62.3728 98.1068 61.268 98.0683 60.5823C98.1838 58.7155 97.7217 56.7344 97.7217 54.8676C97.7217 53.4961 97.3752 52.2008 97.0671 50.9055C96.5665 49.1149 96.6435 47.0576 95.9889 45.648C95.3728 44.3908 93.9866 45.1146 93.7171 46.5242C93.6015 46.5242 93.409 46.5623 93.2935 46.6004C93.2935 45.2289 92.3693 46.0671 91.8302 45.9909C91.9458 46.6385 91.9458 47.3243 91.7532 48.0481C91.8302 48.1624 91.9072 48.5053 91.9072 48.6577Z" fill="#F5A22A"/>
<path d="M122.481 57.6106C122.173 58.906 121.942 60.4299 121.403 61.6871C120.749 63.4777 120.479 65.1921 119.786 66.7922C119.747 66.8684 119.709 66.9446 119.67 67.0589C119.747 67.2112 119.863 67.3255 119.94 67.4398C120.363 67.9351 121.018 68.278 121.711 67.6684C121.75 67.4779 121.827 67.0969 121.827 67.0969C122.058 67.0589 122.25 67.1731 122.443 67.2493C122.828 66.0683 123.213 64.8873 123.56 63.7063C123.983 62.2205 124.407 60.7727 125.023 59.4012C124.484 60.8108 124.022 62.2586 123.56 63.7063C123.251 64.8873 122.943 66.1064 122.597 67.3255C122.828 67.4398 123.059 67.4779 123.251 67.2112C123.637 66.9065 123.637 65.5349 123.906 64.8111C124.792 62.8681 125.215 60.6204 125.985 58.6393C126.524 57.1916 126.794 55.7058 127.025 54.1819C127.295 52.0865 128.219 49.953 128.219 48.2005C128.18 46.6385 126.602 46.8671 125.754 48.2386C125.639 48.2005 125.446 48.1624 125.331 48.1624C125.87 46.7147 124.676 47.2481 124.214 46.9433C124.022 47.6672 123.752 48.391 123.29 49.0768C123.251 49.2673 123.174 49.6482 123.097 49.8006C122.058 54.1438 121.326 58.2964 120.132 62.4871C120.98 59.7822 121.673 57.2678 122.212 54.4866C122.289 54.5247 122.327 54.6009 122.404 54.5247C122.25 57.4202 120.826 59.8203 120.479 62.6776C120.363 62.6395 120.171 62.6014 120.094 62.6014C119.824 63.5539 119.516 64.5444 119.208 65.5349C119.093 65.954 119.208 66.335 119.401 66.716C120.864 63.8967 121.557 60.6204 122.481 57.6106Z" fill="#F5A22A"/>
<path d="M148.743 74.3355C148.743 74.2593 148.743 74.145 148.627 74.1831C151.438 72.0877 154.711 71.2877 157.638 69.4209C157.676 69.4971 157.792 69.6876 157.83 69.7638C158.947 69.2304 160.064 68.697 161.219 68.2018C161.681 67.9732 161.989 67.5922 162.182 67.1731C158.6 68.278 155.058 70.2209 151.554 71.8591C152.979 71.0972 154.557 70.1448 156.098 69.5733C158.254 68.6589 160.025 67.5922 162.028 66.9065C162.143 66.8684 162.259 66.8303 162.374 66.7922C162.451 66.6017 162.528 66.4493 162.567 66.2969C162.721 65.6111 162.605 64.8873 161.527 64.8492C161.334 64.9635 160.911 65.1921 160.911 65.1921C160.718 65.0397 160.68 64.8492 160.641 64.6206C159.255 65.2302 157.907 65.8397 156.521 66.4874C154.827 67.3255 153.171 68.0875 151.438 68.697C153.171 68.0113 154.865 67.2493 156.521 66.4874C157.869 65.8016 159.217 65.1159 160.564 64.4301C160.487 64.2015 160.372 64.011 160.025 64.0491C159.486 64.011 158.177 65.0397 157.33 65.3826C154.865 66.2207 152.478 67.5922 150.091 68.5447C148.358 69.2304 146.779 70.1829 145.2 71.1353C143.352 72.3163 141.119 73.1926 139.501 74.2593L137.653 75.4784L138.423 77.1547C138.654 77.6881 139.001 78.1453 139.386 78.4881C140.002 79.0596 140.541 79.1739 140.887 79.1739C140.964 79.1739 141.041 79.1358 141.119 79.1358C141.157 79.0977 141.196 79.0596 141.234 79.0215C141.311 78.9453 141.35 78.831 141.388 78.6786C141.388 78.1453 141.003 77.3452 140.887 76.4309C140.964 76.3928 141.157 76.2785 141.273 76.2404C141.388 76.5833 141.581 76.7737 141.735 76.8118C141.889 76.8499 142.004 76.7737 142.12 76.6975C142.12 76.6975 142.12 76.6594 142.158 76.6594L141.619 78.0691C142.043 77.9167 142.505 77.7643 143.005 77.6881C143.198 77.5738 143.621 77.3452 143.814 77.269C148.627 74.7165 153.017 72.1639 157.792 69.84C154.596 71.2496 151.708 72.6592 148.743 74.3355Z" fill="#F5A22A"/>
<path d="M170.768 106.985C170.576 106.909 170.191 106.718 170.191 106.718C170.191 106.49 170.345 106.337 170.46 106.147C169.228 105.461 167.996 104.814 166.764 104.166C165.185 103.404 163.645 102.604 162.22 101.69C163.722 102.528 165.262 103.366 166.764 104.166C168.035 104.775 169.305 105.385 170.576 105.995C170.73 105.804 170.807 105.576 170.576 105.309C170.306 104.852 168.805 104.509 168.073 104.052C166.071 102.68 163.645 101.766 161.565 100.547C160.025 99.6704 158.408 99.137 156.752 98.5656C154.442 97.8798 152.17 96.5845 150.206 96.2797C148.435 96.0511 148.55 97.6512 149.975 98.718C149.936 98.8323 149.859 99.0228 149.821 99.099C148.281 98.2989 148.743 99.5561 148.358 99.9752C149.166 100.28 149.936 100.661 150.63 101.271C150.822 101.347 151.246 101.499 151.438 101.575C156.098 103.366 160.564 104.966 164.954 107.099C162.143 105.652 159.486 104.395 156.521 103.328C156.56 103.29 156.675 103.213 156.56 103.137C159.717 103.861 162.182 105.804 165.224 106.795C165.185 106.871 165.108 107.061 165.07 107.176C166.071 107.671 167.072 108.204 168.112 108.776C168.535 108.966 168.997 108.966 169.421 108.89C166.648 106.833 163.183 105.385 159.987 103.823C161.373 104.395 162.99 104.966 164.261 105.766C166.148 106.795 167.919 107.519 169.536 108.585C169.613 108.661 169.69 108.7 169.806 108.776C169.998 108.738 170.152 108.661 170.268 108.623C170.807 108.357 171.308 107.785 170.768 106.985Z" fill="#F5A22A"/>
<path d="M167.534 133.234C167.149 132.701 166.61 132.168 166.302 131.711C164.761 129.12 162.335 126.91 160.179 124.815C158.6 123.291 156.675 122.11 154.711 121.157C154.018 120.853 153.325 120.51 152.67 120.129C151.977 119.824 151.284 119.443 150.591 119.138C149.898 118.834 149.205 118.529 148.55 118.338C147.896 118.11 147.241 117.919 146.625 117.881C144.391 117.652 144.854 119.291 146.663 120.357C146.625 120.472 146.548 120.662 146.548 120.738C144.661 119.938 145.316 121.234 144.931 121.653C145.893 121.919 146.779 122.377 147.588 122.986C147.819 123.062 148.281 123.253 148.473 123.367C149.782 123.9 151.053 124.548 152.285 125.196C153.518 125.882 154.711 126.567 155.828 127.367C158.061 128.967 160.179 130.758 161.95 132.892C160.834 131.52 159.64 130.225 158.331 129.082C157.022 127.939 155.597 126.91 154.057 125.996C154.134 125.958 154.211 125.92 154.134 125.805C155.828 126.567 157.253 127.71 158.562 128.929C159.871 130.148 161.026 131.482 162.374 132.739C162.297 132.815 162.143 132.93 162.066 133.006C162.451 133.501 162.875 133.996 163.221 134.53C163.414 134.796 163.606 135.063 163.76 135.33C163.953 135.596 164.107 135.863 164.261 136.168C164.569 136.587 164.992 136.854 165.416 137.082C164.646 135.254 163.529 133.539 162.181 131.939C160.834 130.339 159.293 128.891 157.715 127.558C159.101 128.625 160.68 129.882 161.719 131.291C163.298 133.234 164.761 134.911 165.724 136.93C165.763 137.044 165.801 137.158 165.878 137.273C166.071 137.349 166.225 137.387 166.417 137.463C167.11 137.616 167.88 137.463 167.765 136.32C167.611 136.092 167.341 135.673 167.341 135.673C167.457 135.482 167.688 135.406 167.88 135.33C167.033 133.844 166.071 132.434 164.992 131.063C163.606 129.425 162.181 127.825 160.757 126.301C162.258 127.825 163.683 129.425 164.992 131.063C166.109 132.396 167.149 133.768 168.073 135.254C168.304 135.177 168.497 135.025 168.42 134.644C168.304 134.263 167.919 133.768 167.534 133.234Z" fill="#F5A22A"/>
<path d="M140.271 143.864C139.848 142.797 139.078 141.959 138.308 141.121C138.038 140.854 137.768 140.549 137.499 140.244C137.152 139.825 136.767 139.444 136.344 139.101C135.92 138.759 135.42 138.454 134.765 138.263C134.033 138.035 133.456 138.073 132.917 138.263C132.455 138.454 132.224 138.759 132.147 139.025C132.108 139.178 132.108 139.292 132.147 139.406C132.185 139.521 132.224 139.635 132.262 139.749C132.532 140.168 132.994 140.321 133.456 140.625C133.456 140.74 133.417 140.93 133.417 141.044C133.225 140.968 133.071 141.083 133.032 141.159C132.955 141.273 132.994 141.387 132.994 141.54C133.032 141.806 133.148 142.149 133.148 142.416C133.186 142.378 133.263 142.416 133.302 142.454C133.34 142.492 133.302 142.53 133.302 142.568C133.302 142.606 133.302 142.645 133.302 142.645C133.302 142.683 133.302 142.721 133.302 142.759C133.34 142.759 133.417 142.835 133.456 142.835C133.61 142.949 133.764 143.064 133.879 143.216C133.918 143.216 133.956 143.33 134.033 143.368L134.187 143.559C134.303 143.673 134.418 143.826 134.534 143.94C134.996 144.473 135.42 145.007 135.805 145.54C136.613 146.645 137.306 147.826 137.807 149.083C137.191 147.407 136.382 145.921 135.266 144.549C135.343 144.511 135.42 144.511 135.42 144.435C136.19 145.007 136.613 145.807 136.998 146.607C137.383 147.407 137.691 148.245 138.231 149.007C138.154 149.045 137.961 149.121 137.845 149.197C138.077 149.769 138.269 150.378 138.423 151.026C138.539 151.293 138.77 151.407 139.078 151.521C139.078 149.464 137.999 147.521 137.037 145.692C137.499 146.416 138.115 147.254 138.346 148.092C138.731 149.274 139.27 150.264 139.386 151.407C139.386 151.483 139.386 151.521 139.386 151.597C139.54 151.636 139.655 151.674 139.771 151.674C140.348 151.712 141.08 151.636 141.388 150.95C141.35 150.836 141.234 150.569 141.234 150.569C141.388 150.455 141.619 150.416 141.85 150.34C141.658 149.502 141.388 148.664 141.08 147.826C140.656 146.835 140.233 145.807 139.925 144.778C140.31 145.807 140.733 146.835 141.08 147.826C141.427 148.626 141.773 149.464 142.043 150.302C142.274 150.226 142.505 150.15 142.543 149.921C142.736 149.54 142.081 148.778 141.966 148.245C141.735 146.759 140.81 145.311 140.271 143.864Z" fill="#F5A22A"/>
<path d="M117.013 142.835C116.128 141.502 114.973 142.568 114.896 144.092C114.78 144.13 114.588 144.168 114.511 144.207C114.241 142.797 113.509 143.787 112.932 143.787C113.163 144.435 113.24 145.121 113.163 145.845C113.201 145.997 113.278 146.34 113.317 146.492C113.817 148.397 114.164 150.302 114.318 152.207C114.472 154.112 114.472 156.055 114.164 157.96C114.626 155.522 114.703 153.121 114.318 150.645C114.395 150.645 114.472 150.683 114.511 150.607C114.934 151.864 114.896 153.121 114.819 154.379C114.742 155.636 114.511 156.855 114.549 158.15C114.434 158.15 114.241 158.112 114.125 158.112C113.971 158.988 113.779 159.865 113.509 160.741C113.432 161.122 113.586 161.465 113.74 161.77C114.395 160.512 114.78 159.103 115.011 157.655C115.242 156.207 115.319 154.721 115.358 153.274C115.435 154.493 115.473 155.903 115.165 157.122C114.819 158.836 114.703 160.398 114.048 161.846C114.01 161.922 113.971 161.998 113.933 162.074C114.01 162.189 114.125 162.341 114.202 162.455C114.626 162.912 115.281 163.293 115.974 162.684C116.012 162.493 116.089 162.151 116.089 162.151C116.32 162.112 116.513 162.227 116.705 162.303C117.052 161.16 117.36 159.979 117.591 158.798C117.822 157.312 118.015 155.826 118.284 154.34C118.092 155.826 117.861 157.312 117.591 158.798C117.399 159.979 117.206 161.198 116.898 162.379C117.129 162.455 117.36 162.493 117.553 162.265C117.938 161.96 117.899 160.589 118.092 159.865C118.823 157.845 118.823 155.522 119.054 153.388C119.208 151.826 118.977 150.264 118.631 148.778C118.169 146.721 117.976 144.359 117.013 142.835Z" fill="#F5A22A"/>
<path d="M91.6377 146.683C91.5222 146.645 91.3297 146.607 91.2141 146.607C91.5992 145.73 90.4825 145.997 89.9819 145.769C89.9049 146.226 89.7124 146.683 89.2888 147.064C89.2503 147.178 89.2118 147.407 89.2118 147.521C88.6727 150.226 88.4032 152.817 87.6715 155.445C88.2106 153.769 88.5957 152.207 88.8267 150.493C88.9038 150.531 88.9808 150.569 89.0193 150.531C89.2118 152.359 88.0566 153.807 88.0181 155.636C87.9026 155.598 87.71 155.56 87.5945 155.56C87.4405 156.169 87.248 156.779 87.0169 157.388C86.9784 157.655 87.1325 157.922 87.325 158.15C88.4032 156.436 88.7112 154.417 89.2888 152.55C89.1348 153.35 89.0578 154.302 88.7112 155.064C88.2876 156.169 88.1721 157.236 87.6715 158.226C87.633 158.265 87.5945 158.341 87.5945 158.379C87.71 158.493 87.7871 158.569 87.9026 158.646C88.3647 158.988 89.0578 159.217 89.6739 158.874C89.7124 158.76 89.7509 158.531 89.7509 158.531C89.9434 158.531 90.1745 158.607 90.367 158.646C90.6365 157.922 90.8676 157.198 91.0986 156.474C91.3297 155.56 91.6377 154.645 92.0613 153.807C91.6762 154.683 91.3682 155.598 91.0986 156.474C90.9061 157.198 90.7521 157.96 90.5595 158.722C90.7906 158.798 91.0216 158.836 91.1756 158.684C91.5222 158.493 91.3682 157.655 91.5607 157.198C92.2153 156.017 92.3693 154.607 92.9469 153.388C93.332 152.512 93.409 151.559 93.486 150.607C93.5245 149.312 94.2176 147.978 93.9866 146.873C93.8326 145.769 92.3308 145.845 91.6377 146.683Z" fill="#F5A22A"/>
<path d="M126.525 79.8597C126.371 79.7835 126.255 79.6692 126.101 79.593C126.255 79.7073 126.371 79.7835 126.525 79.8597Z" fill="#F5A22A"/>
<path d="M126.101 79.593C125.793 79.4025 125.485 79.1739 125.177 78.9834C125.485 79.212 125.793 79.4025 126.101 79.593Z" fill="#F5A22A"/>
<path d="M139.309 120.243C140.425 117.843 141.196 115.252 141.581 112.662C141.966 110.033 142.004 107.404 141.735 104.775C141.157 99.5561 139.309 94.4891 136.459 90.0317C134.072 86.3362 130.953 83.0979 127.372 80.5073C129.413 81.9931 131.299 83.7075 132.955 85.5362C133.263 85.841 133.494 86.1839 133.802 86.4886C134.072 86.8315 134.341 87.1363 134.611 87.4792C135.112 88.1649 135.612 88.8126 136.074 89.5364C136.575 90.2222 136.96 90.9461 137.383 91.6699C137.768 92.3938 138.192 93.1176 138.539 93.8796C141.388 99.899 142.505 106.718 141.35 113.271C140.156 119.862 136.652 125.958 131.453 130.339L130.953 130.758L130.452 131.139C130.106 131.406 129.759 131.672 129.413 131.901L128.334 132.587C127.988 132.815 127.603 133.006 127.218 133.234C126.486 133.692 125.677 133.996 124.907 134.377C124.099 134.682 123.329 135.025 122.481 135.292C121.673 135.558 120.826 135.787 119.978 135.977C119.131 136.13 118.284 136.32 117.437 136.435C115.743 136.701 114.048 136.777 112.316 136.816C112.508 136.739 113.086 136.663 112.123 136.625C112.97 136.625 113.856 136.549 114.703 136.511C115.55 136.435 116.436 136.358 117.283 136.206C118.13 136.092 118.977 135.901 119.824 135.711C120.672 135.482 121.519 135.292 122.327 134.987C123.175 134.72 123.945 134.377 124.753 134.073C125.523 133.692 126.332 133.349 127.064 132.892C127.834 132.472 128.527 132.015 129.259 131.52C129.952 131.025 130.645 130.529 131.299 129.958C136.498 125.539 139.963 119.405 141.119 112.738C142.235 106.109 141.003 99.2132 137.999 93.2319C137.229 91.7461 136.344 90.2984 135.381 88.8888C134.88 88.203 134.38 87.5173 133.802 86.8696C133.533 86.5267 133.263 86.222 132.994 85.8791L132.108 84.9647L131.684 84.5076L131.222 84.0504L130.298 83.1741L128.796 81.9169C128.642 81.8026 128.45 81.6502 128.296 81.5359L127.256 80.774C126.91 80.5454 126.525 80.2787 126.178 80.0501C125.485 79.5549 124.715 79.1358 123.983 78.7167C124.022 78.6405 124.137 78.45 124.176 78.3738C119.901 75.8975 115.165 74.2593 110.198 73.6116C105.231 72.964 100.071 73.3831 95.2188 74.7927C91.1757 76.0499 88.0181 77.8786 85.6692 79.7073C91.9458 75.8213 99.493 73.6878 107.117 74.0688C114.742 74.4498 122.212 77.3071 128.219 82.1074C129.721 83.3265 131.145 84.6219 132.416 86.0315C133.687 87.4792 134.88 89.0031 135.882 90.6032C137.922 93.8415 139.424 97.4227 140.233 101.156C140.656 103.023 140.887 104.928 140.964 106.833C140.964 107.328 141.003 107.785 141.003 108.28L140.964 109.69L140.849 111.1C140.81 111.557 140.733 112.052 140.656 112.509C140.348 114.376 139.848 116.243 139.193 117.995C138.654 119.405 137.999 120.738 137.268 122.034C137.46 121.691 137.653 121.31 137.845 120.967C138.192 120.243 138.577 119.519 138.847 118.757C139.463 117.233 139.963 115.633 140.31 113.995C140.656 112.357 140.849 110.681 140.887 109.004C140.964 107.328 140.849 105.614 140.618 103.937C140.502 103.099 140.348 102.261 140.194 101.423C140.002 100.585 139.809 99.7847 139.54 98.9847C139.309 98.1846 139.001 97.3846 138.731 96.5845C138.423 95.8226 138.115 95.0225 137.73 94.2986C137.383 93.5367 136.998 92.8128 136.613 92.089C136.19 91.3651 135.805 90.6794 135.343 89.9936C135.112 89.6507 134.919 89.3079 134.649 88.965C134.418 88.6221 134.187 88.3173 133.918 87.9744C133.687 87.6316 133.417 87.3649 133.148 87.022C132.878 86.7172 132.647 86.4124 132.378 86.1077C129.374 82.717 125.754 80.012 121.865 78.031C119.901 77.0404 117.899 76.2404 115.858 75.6308C115.358 75.4784 114.819 75.326 114.318 75.2117C113.779 75.0975 113.278 74.9832 112.778 74.8308C111.738 74.6403 110.698 74.4498 109.62 74.3355C107.502 74.1069 105.385 74.0307 103.305 74.1831C101.226 74.3355 99.1465 74.6403 97.1441 75.1355C93.101 76.1261 89.2503 77.7262 85.7848 79.9358C85.3997 80.1644 85.0146 80.393 84.6681 80.6597L83.5514 81.4598C83.1278 81.8407 82.7427 82.2598 82.3577 82.6408C82.1651 82.8313 82.0111 83.0218 81.8186 83.2122C81.6646 83.4027 81.5105 83.5932 81.3565 83.7456C81.087 84.0885 80.8174 84.4314 80.5864 84.7361C80.3553 85.079 80.2013 85.3457 80.0473 85.6124C79.7777 86.1077 79.6622 86.4505 79.7777 86.5648C79.8933 86.6791 80.2398 86.5267 80.8944 86.0696C81.2025 85.841 81.5876 85.5362 82.0881 85.1933C82.3192 85.0028 82.5887 84.8123 82.8968 84.5838C83.2048 84.3552 83.5129 84.1266 83.8979 83.898C84.052 83.7456 84.2445 83.5932 84.437 83.4408C84.6296 83.2884 84.8606 83.136 85.0916 82.9456C85.5537 82.6027 86.0158 82.2598 86.4779 81.955C86.9399 81.6502 87.325 81.3836 87.6331 81.1931C87.9411 81.0026 88.1336 80.8883 88.1336 80.8883C88.8268 80.6978 88.5957 81.1169 88.3647 81.4979C93.101 78.7167 98.5304 77.0404 103.998 76.7737C106.732 76.6214 109.505 76.8499 112.162 77.4214C114.857 77.9929 117.437 78.8691 119.901 80.0501C117.437 78.8691 114.819 77.9929 112.123 77.4595C109.428 76.9261 106.655 76.7356 103.883 76.888C98.3379 77.1928 92.9084 78.9834 88.1336 81.8788C88.0566 82.0693 88.0566 82.2217 88.3262 82.1455C88.4802 82.1074 88.7112 82.0312 89.0193 81.9169C89.3273 81.8026 89.7509 81.574 90.29 81.3455C91.0601 81.0407 92.2923 80.4311 93.8326 79.8597C94.6027 79.5549 95.4499 79.2882 96.374 78.9834C96.8361 78.8691 97.2982 78.7167 97.7988 78.6024C98.2993 78.45 98.7999 78.3738 99.3005 78.2596C101.341 77.8405 103.498 77.5738 105.577 77.5357C106.078 77.5357 106.617 77.5357 107.117 77.5357C107.618 77.5738 108.118 77.6119 108.581 77.6119C109.543 77.7262 110.429 77.8024 111.238 77.9929C115.704 78.8691 120.094 80.6978 123.945 83.3265C127.795 85.9553 131.107 89.4603 133.417 93.4986C135.766 97.5369 137.114 102.109 137.345 106.68C137.537 111.252 136.536 115.71 134.38 119.519C133.648 120.929 132.724 122.224 131.723 123.443C131.222 124.053 130.683 124.624 130.144 125.196L129.297 125.996C129.027 126.263 128.681 126.491 128.411 126.758C127.179 127.748 125.908 128.625 124.522 129.348C123.136 130.072 121.673 130.644 120.171 131.063C118.669 131.482 117.052 131.749 115.473 131.939C113.856 132.091 112.239 132.13 110.583 132.053C107.271 131.939 103.96 131.368 100.648 130.606C96.1045 129.539 91.5222 128.129 87.479 125.958C86.4779 125.424 85.5152 124.815 84.5911 124.167C83.6669 123.52 82.8198 122.796 81.9726 122.072C80.3939 120.586 79.0076 118.872 77.9679 116.967C77.6984 116.51 77.4674 116.014 77.2363 115.519C77.0438 115.024 76.7742 114.528 76.6202 114.033C76.1966 113.043 75.9271 112.014 75.6576 110.985C75.157 108.928 74.8874 106.833 74.8874 104.814C74.8489 100.737 75.7731 96.8893 77.2363 93.651C78.584 90.7937 79.8933 89.1174 80.5094 88.1268C80.6634 87.8983 80.7789 87.6697 80.8944 87.5173C80.9715 87.3649 81.0485 87.2125 81.0485 87.1363C81.0485 86.9839 80.8944 86.9458 80.5864 87.0982C80.0088 87.3649 78.7381 88.2411 77.3133 89.9174C75.8886 91.5937 74.3098 94.1463 73.2702 97.4608C73.1546 97.4227 72.9621 97.3846 72.8851 97.3465C73.8863 93.9558 74.9644 91.9747 75.5805 90.7556C75.7346 90.4508 75.8886 90.1841 75.9656 89.9936C76.0811 89.765 76.1581 89.6126 76.2352 89.4603C76.3507 89.1555 76.3892 89.0031 76.3507 88.9269C76.2352 88.5459 75.1185 89.4983 75.4265 88.584C73.2702 91.6699 71.8454 95.1749 71.0368 98.8323C70.2282 102.452 70.1126 106.223 70.5747 109.957C70.7287 110.871 71.0368 112.243 71.4604 113.614C71.8839 114.948 72.423 116.281 72.8081 117.119C73.9633 119.634 75.5035 121.996 77.4289 124.053C77.6599 124.32 77.8909 124.548 78.1605 124.815C78.43 125.043 78.6611 125.31 78.9306 125.539C79.4312 125.996 79.9703 126.453 80.5094 126.872C81.5876 127.71 82.7042 128.51 83.8594 129.196C86.1698 130.606 88.5957 131.711 91.0601 132.625C93.5245 133.539 96.0275 134.263 98.4919 134.911C103.498 136.168 108.658 137.044 113.971 136.816C116.628 136.701 119.285 136.32 121.865 135.596C124.445 134.835 126.948 133.692 129.182 132.206C133.648 129.31 137.114 125.043 139.309 120.243ZM134.38 93.5367C133.571 92.089 132.647 90.7175 131.646 89.3841C130.606 88.0887 129.49 86.8696 128.257 85.7267C127.949 85.4219 127.641 85.1933 127.333 84.8885C127.025 84.6219 126.717 84.3552 126.371 84.0885L125.369 83.3265L124.33 82.6027C124.176 82.4884 123.983 82.3741 123.829 82.2598L123.29 81.9169C122.943 81.6883 122.597 81.4598 122.212 81.2693C121.827 81.0407 121.403 80.8502 121.018 80.6216C126.756 83.5932 131.569 88.1268 134.534 93.651C137.691 99.4799 138.924 106.261 137.691 112.509C138.885 106.185 137.537 99.3275 134.38 93.5367Z" fill="#F5A22A"/>
<path d="M127.41 80.5073C127.333 80.4311 127.256 80.393 127.179 80.3168C127.218 80.393 127.295 80.4311 127.41 80.5073Z" fill="#F5A22A"/>
<defs>
<linearGradient id="paint0_linear" x1="-8.42679" y1="-14.4799" x2="484.685" y2="-32.1978" gradientUnits="userSpaceOnUse">
<stop stop-color="#A8842F"/>
<stop offset="0.494792" stop-color="#E5CE8B"/>
<stop offset="1" stop-color="#AC8936"/>
</linearGradient>
<linearGradient id="paint1_linear" x1="-25.1567" y1="-32.1066" x2="541.008" y2="-52.4493" gradientUnits="userSpaceOnUse">
<stop stop-color="#A8842F"/>
<stop offset="0.494792" stop-color="#E5CE8B"/>
<stop offset="1" stop-color="#AC8936"/>
</linearGradient>
<linearGradient id="paint2_linear" x1="8.02779" y1="-56.1517" x2="229.107" y2="-47.5882" gradientUnits="userSpaceOnUse">
<stop stop-color="#A8842F"/>
<stop offset="0.494792" stop-color="#E5CE8B"/>
<stop offset="1" stop-color="#AC8936"/>
</linearGradient>
<radialGradient id="paint3_radial" cx="0" cy="0" r="1" gradientUnits="userSpaceOnUse" gradientTransform="translate(88.6411 86.1371) rotate(60.0413) scale(138.73)">
<stop offset="0.421875" stop-color="white"/>
<stop offset="0.708333" stop-color="white" stop-opacity="0.56"/>
<stop offset="0.833333" stop-color="white"/>
</radialGradient>
<linearGradient id="paint4_linear" x1="-12.6093" y1="-18.8866" x2="498.766" y2="-37.2607" gradientUnits="userSpaceOnUse">
<stop stop-color="#A8842F"/>
<stop offset="0.494792" stop-color="#E5CE8B"/>
<stop offset="1" stop-color="#AC8936"/>
</linearGradient>
</defs>
</svg>
